{
	"info": {
		"_postman_id": "e074fd8d-97b7-4a93-adbd-0c67755c212d",
		"name": "govtechLocal",
		"schema": "https://schema.getpostman.com/json/collection/v2.1.0/collection.json",
		"_exporter_id": "25231018"
	},
	"item": [
		{
			"name": "createCIDRRange",
			"request": {
				"method": "POST",
				"header": [],
				"body": {
					"mode": "raw",
					"raw": "{\n  \"id\": \"test\",\n  \"name\": \"test\",\n  \"cidr\": \"172.16.0.0/16\"\n}\n",
					"options": {
						"raw": {
							"language": "json"
						}
					}
				},
				"url": {
					"raw": "http://localhost:3000/cidr-ranges/",
					"protocol": "http",
					"host": [
						"localhost"
					],
					"port": "3000",
					"path": [
						"cidr-ranges",
						""
					]
				}
			},
			"response": []
		},
		{
			"name": "getAllRanges",
			"request": {
				"method": "GET",
				"header": [],
				"url": {
					"raw": "http://localhost:3000/cidr-ranges/",
					"protocol": "http",
					"host": [
						"localhost"
					],
					"port": "3000",
					"path": [
						"cidr-ranges",
						""
					]
				}
			},
			"response": []
		},
		{
			"name": "createCIDRBlock",
			"request": {
				"method": "POST",
				"header": [],
				"body": {
					"mode": "raw",
					"raw": "{\n    \"id\": \"testBlock\",\n    \"size\": 28\n}\n",
					"options": {
						"raw": {
							"language": "json"
						}
					}
				},
				"url": {
					"raw": "http://localhost:3000/cidr-ranges/test/blocks",
					"protocol": "http",
					"host": [
						"localhost"
					],
					"port": "3000",
					"path": [
						"cidr-ranges",
						"test",
						"blocks"
					]
				}
			},
			"response": []
		},
		{
			"name": "deleteCIDRBlock",
			"request": {
				"method": "DELETE",
				"header": [],
				"url": {
					"raw": "http://localhost:3000/cidr-ranges/test/blocks/testBlock",
					"protocol": "http",
					"host": [
						"localhost"
					],
					"port": "3000",
					"path": [
						"cidr-ranges",
						"test",
						"blocks",
						"testBlock"
					]
				}
			},
			"response": []
		},
		{
			"name": "deleteCIDRRange",
			"request": {
				"method": "DELETE",
				"header": [],
				"url": {
					"raw": "http://localhost:3000/cidr-ranges/test",
					"protocol": "http",
					"host": [
						"localhost"
					],
					"port": "3000",
					"path": [
						"cidr-ranges",
						"test"
					]
				}
			},
			"response": []
		},
		{
			"name": "getAllBlocks",
			"request": {
				"method": "GET",
				"header": [],
				"url": {
					"raw": "http://localhost:3000/cidr-ranges/test/blocks",
					"protocol": "http",
					"host": [
						"localhost"
					],
					"port": "3000",
					"path": [
						"cidr-ranges",
						"test",
						"blocks"
					]
				}
			},
			"response": []
		}
	]
}